{
    "threads": 8,
    "port": "8503",
    "host_address_1": "172.31.14.37",
    "host_address_2": "172.31.46.10",
    "crop_size": [
        1920,
        1920
    ],
    "exp_num": 10,
    "requests_per_thread": 5,
    "timeout": 30
}